^D:\VISUALSTUDIO\SP\WIN32API_LAB_7\WIN32API_LAB_6\DEBUG\MAIN.OBJ
D:\VISUALSTUDIO\SP\WIN32API_LAB_7\DEBUG\WIN32API_LAB_7.ILK
D:\VISUALSTUDIO\SP\WIN32API_LAB_7\DEBUG\WIN32API_LAB_7.EXE
D:\VISUALSTUDIO\SP\WIN32API_LAB_7\DEBUG\WIN32API_LAB_7.PDB
