^D:\VISUALSTUDIO\SP\WIN32API_LAB_12\WIN32API_LAB_6\X64\DEBUG\MAIN.OBJ
D:\VISUALSTUDIO\SP\WIN32API_LAB_12\X64\DEBUG\WIN32API_LAB_12.ILK
D:\VISUALSTUDIO\SP\WIN32API_LAB_12\X64\DEBUG\WIN32API_LAB_12.EXE
D:\VISUALSTUDIO\SP\WIN32API_LAB_12\X64\DEBUG\WIN32API_LAB_12.PDB
