^D:\VISUALSTUDIO\SP\WIN32API_LAB_8\WIN32API_LAB_6\DEBUG\MAIN.OBJ|D:\VISUALSTUDIO\SP\WIN32API_LAB_8\WIN32API_LAB_6\DEBUG\WIN32API_LAB_8.RES
D:\VISUALSTUDIO\SP\WIN32API_LAB_8\DEBUG\WIN32API_LAB_8.ILK
D:\VISUALSTUDIO\SP\WIN32API_LAB_8\DEBUG\WIN32API_LAB_8.EXE
D:\VISUALSTUDIO\SP\WIN32API_LAB_8\DEBUG\WIN32API_LAB_8.PDB
