^D:\VISUALSTUDIO\SP\WIN32API_LAB_6\WIN32API_LAB_6\DEBUG\MAIN.OBJ
D:\VISUALSTUDIO\SP\WIN32API_LAB_6\DEBUG\WIN32API_LAB_6.ILK
D:\VISUALSTUDIO\SP\WIN32API_LAB_6\DEBUG\WIN32API_LAB_6.EXE
D:\VISUALSTUDIO\SP\WIN32API_LAB_6\DEBUG\WIN32API_LAB_6.PDB
