^D:\VISUALSTUDIO\SP\WIN32API_LAB_9\WIN32API_LAB_6\DEBUG\MAIN.OBJ|D:\VISUALSTUDIO\SP\WIN32API_LAB_9\WIN32API_LAB_6\DEBUG\WIN32API_LAB_9.RES
D:\VISUALSTUDIO\SP\WIN32API_LAB_9\DEBUG\WIN32API_LAB_9.ILK
D:\VISUALSTUDIO\SP\WIN32API_LAB_9\DEBUG\WIN32API_LAB_9.EXE
D:\VISUALSTUDIO\SP\WIN32API_LAB_9\DEBUG\WIN32API_LAB_9.PDB
