^D:\VISUALSTUDIO\SP\WIN32API_LAB_10P2\WIN32API_LAB_6\DEBUG\MAIN.OBJ
D:\VISUALSTUDIO\SP\WIN32API_LAB_10P2\DEBUG\WIN32API_LAB_10P2.ILK
D:\VISUALSTUDIO\SP\WIN32API_LAB_10P2\DEBUG\WIN32API_LAB_10P2.EXE
D:\VISUALSTUDIO\SP\WIN32API_LAB_10P2\DEBUG\WIN32API_LAB_10P2.PDB
