^D:\VISUALSTUDIO\SP\WIN32API_LAB_9\WIN32API_LAB_6\MAIN.CPP
D:\VISUALSTUDIO\SP\WIN32API_LAB_9\WIN32API_LAB_6\DEBUG\VC140.PDB
D:\VISUALSTUDIO\SP\WIN32API_LAB_9\WIN32API_LAB_6\DEBUG\VC140.IDB
D:\VISUALSTUDIO\SP\WIN32API_LAB_9\WIN32API_LAB_6\DEBUG\MAIN.OBJ
