^D:\VISUALSTUDIO\SP\WIN32API_LAB_14\WIN32API_LAB_6\MAIN.CPP
D:\VISUALSTUDIO\SP\WIN32API_LAB_14\WIN32API_LAB_6\X64\DEBUG\VC140.PDB
D:\VISUALSTUDIO\SP\WIN32API_LAB_14\WIN32API_LAB_6\X64\DEBUG\VC140.IDB
D:\VISUALSTUDIO\SP\WIN32API_LAB_14\WIN32API_LAB_6\X64\DEBUG\MAIN.OBJ
